Run 1: P = 0.8
[(2168968, 0), (2168978, 10), (2168988, 38), (2168998, 80), (2169008, 131), (2169018, 190), (2169028, 253), (2169038, 318), (2169048, 385), (2169058, 453), (2169068, 522), (2169078, 592), (2169088, 662), (2169098, 732), (2169108, 803), (2169118, 875), (2169128, 946), (2169138, 1018), (2169148, 1090), (2169158, 1162), (2169168, 1233), (2169178, 1305), (2169188, 1377), (2169198, 1449), (2169208, 1517), (2169218, 1570), (2169228, 1603), (2169238, 1612), (2169248, 1602), (2169258, 1576), (2169268, 1544), (2169278, 1511), (2169288, 1482), (2169298, 1462), (2169308, 1453), (2169318, 1454), (2169328, 1462), (2169338, 1475), (2169348, 1489), (2169358, 1502), (2169368, 1511), (2169378, 1517), (2169388, 1518), (2169398, 1517), (2169408, 1513), (2169418, 1508), (2169428, 1504), (2169438, 1501), (2169448, 1499), (2169458, 1498), (2169468, 1498), (2169478, 1498), (2169488, 1498), (2169498, 1498), (2169508, 1498), (2169518, 1498), (2169528, 1498), (2169538, 1498), (2169548, 1498), (2169558, 1498), (2169568, 1498), (2169578, 1498), (2169588, 1498), (2169598, 1498), (2169608, 1498), (2169618, 1498), (2169628, 1498), (2169638, 1498), (2169648, 1498), (2169658, 1498), (2169668, 1498), (2169678, 1498), (2169688, 1498), (2169698, 1498), (2169708, 1498), (2169718, 1498), (2169728, 1498), (2169738, 1498), (2169748, 1498), (2169758, 1498), (2169768, 1498), (2169778, 1498), (2169788, 1498), (2169798, 1498), (2169808, 1498), (2169818, 1498), (2169828, 1498), (2169838, 1498), (2169848, 1498), (2169858, 1498), (2169868, 1498), (2169878, 1498), (2169888, 1498), (2169898, 1498), (2169908, 1498), (2169918, 1498), (2169928, 1498), (2169938, 1498), (2169948, 1498), (2169958, 1498)]

Run 2: P = 0.4
[(2198121, 0), (2198131, 9), (2198141, 37), (2198151, 78), (2198161, 129), (2198171, 188), (2198181, 251), (2198191, 315), (2198201, 382), (2198211, 450), (2198221, 519), (2198231, 589), (2198241, 661), (2198251, 732), (2198261, 804), (2198271, 876), (2198281, 948), (2198291, 1020), (2198301, 1092), (2198311, 1164), (2198321, 1236), (2198331, 1308), (2198341, 1378), (2198351, 1444), (2198361, 1500), (2198371, 1547), (2198381, 1582), (2198391, 1601), (2198401, 1607), (2198411, 1602), (2198421, 1590), (2198431, 1574), (2198441, 1556), (2198451, 1539), (2198461, 1522), (2198471, 1508), (2198481, 1496), (2198491, 1488), (2198501, 1483), (2198511, 1481), (2198521, 1481), (2198531, 1482), (2198541, 1484), (2198551, 1486), (2198561, 1487), (2198571, 1488), (2198581, 1489), (2198591, 1491), (2198601, 1491), (2198611, 1492), (2198621, 1492), (2198631, 1492), (2198641, 1492), (2198651, 1492), (2198661, 1492), (2198671, 1492), (2198681, 1492), (2198691, 1492), (2198701, 1492), (2198711, 1492), (2198721, 1492), (2198731, 1492), (2198741, 1492), (2198751, 1492), (2198761, 1492), (2198771, 1492), (2198781, 1492), (2198791, 1492), (2198801, 1492), (2198811, 1492), (2198821, 1492), (2198831, 1492), (2198841, 1492), (2198851, 1492), (2198861, 1492), (2198871, 1492), (2198881, 1492), (2198891, 1492), (2198901, 1492), (2198911, 1492), (2198921, 1492), (2198931, 1492), (2198941, 1492), (2198951, 1492), (2198961, 1492), (2198971, 1492), (2198981, 1492), (2198991, 1492), (2199001, 1492), (2199011, 1492), (2199021, 1492), (2199031, 1492), (2199041, 1492), (2199051, 1492), (2199061, 1492), (2199071, 1492), (2199081, 1492), (2199091, 1492), (2199101, 1492), (2199111, 1492)]

Run 3: P = 0.2
[(2218800, 0), (2218811, 11), (2218821, 40), (2218831, 82), (2218841, 135), (2218851, 193), (2218861, 255), (2218871, 320), (2218881, 388), (2218891, 456), (2218901, 525), (2218911, 595), (2218921, 665), (2218931, 736), (2218941, 807), (2218951, 879), (2218961, 951), (2218971, 1023), (2218981, 1094), (2218991, 1164), (2219001, 1231), (2219011, 1293), (2219021, 1350), (2219031, 1400), (2219041, 1442), (2219051, 1476), (2219061, 1503), (2219071, 1523), (2219081, 1536), (2219091, 1544), (2219101, 1547), (2219111, 1548), (2219121, 1547), (2219131, 1545), (2219141, 1543), (2219151, 1540), (2219161, 1537), (2219171, 1534), (2219181, 1531), (2219191, 1529), (2219201, 1527), (2219211, 1525), (2219221, 1524), (2219231, 1523), (2219241, 1522), (2219251, 1521), (2219261, 1521), (2219271, 1520), (2219281, 1520), (2219291, 1520), (2219301, 1520), (2219311, 1520), (2219321, 1520), (2219331, 1520), (2219341, 1520), (2219351, 1520), (2219361, 1520), (2219371, 1520), (2219381, 1520), (2219391, 1520), (2219401, 1520), (2219411, 1520), (2219421, 1520), (2219431, 1520), (2219441, 1520), (2219451, 1520), (2219461, 1520), (2219471, 1520), (2219481, 1520), (2219491, 1520), (2219501, 1520), (2219511, 1520), (2219521, 1520), (2219531, 1520), (2219541, 1520), (2219551, 1520), (2219561, 1520), (2219571, 1520), (2219581, 1520), (2219591, 1520), (2219601, 1520), (2219611, 1520), (2219621, 1520), (2219631, 1520), (2219641, 1520), (2219651, 1520), (2219661, 1520), (2219671, 1520), (2219681, 1520), (2219691, 1520), (2219701, 1520), (2219711, 1520), (2219721, 1520), (2219731, 1520), (2219741, 1520), (2219751, 1520), (2219761, 1520), (2219771, 1520), (2219781, 1520), (2219791, 1520)]

Run 4: P = 0.1
[(2238661, 0), (2238672, 11), (2238682, 40), (2238692, 81), (2238702, 132), (2238712, 191), (2238722, 253), (2238732, 318), (2238742, 385), (2238752, 453), (2238762, 523), (2238772, 593), (2238782, 662), (2238792, 731), (2238802, 797), (2238812, 861), (2238822, 921), (2238832, 979), (2238842, 1033), (2238852, 1083), (2238862, 1130), (2238872, 1173), (2238882, 1211), (2238892, 1247), (2238902, 1278), (2238912, 1306), (2238922, 1331), (2238932, 1353), (2238942, 1373), (2238952, 1390), (2238962, 1405), (2238972, 1417), (2238982, 1428), (2238992, 1438), (2239002, 1446), (2239012, 1452), (2239022, 1458), (2239032, 1462), (2239042, 1466), (2239052, 1469), (2239062, 1471), (2239072, 1472), (2239082, 1473), (2239092, 1473), (2239102, 1473), (2239112, 1473), (2239122, 1473), (2239132, 1473), (2239142, 1473), (2239152, 1473), (2239162, 1473), (2239172, 1473), (2239182, 1473), (2239192, 1473), (2239202, 1473), (2239212, 1473), (2239222, 1473), (2239232, 1473), (2239242, 1473), (2239252, 1473), (2239262, 1473), (2239272, 1473), (2239282, 1473), (2239292, 1473), (2239302, 1473), (2239312, 1473), (2239322, 1473), (2239332, 1473), (2239342, 1473), (2239352, 1473), (2239362, 1473), (2239372, 1473), (2239382, 1473), (2239392, 1473), (2239402, 1473), (2239412, 1473), (2239422, 1473), (2239432, 1473), (2239442, 1473), (2239452, 1473), (2239462, 1473), (2239472, 1473), (2239482, 1473), (2239492, 1473), (2239502, 1473), (2239512, 1473), (2239522, 1473), (2239532, 1473), (2239542, 1473), (2239552, 1473), (2239562, 1473), (2239572, 1473), (2239582, 1473), (2239592, 1473), (2239602, 1473), (2239612, 1473), (2239622, 1473), (2239632, 1473), (2239642, 1473), (2239652, 1473)]

Run 5: P = 0.125
[(2254835, 0), (2254845, 8), (2254855, 36), (2254865, 76), (2254875, 126), (2254885, 184), (2254895, 246), (2254905, 311), (2254915, 378), (2254925, 446), (2254935, 515), (2254945, 585), (2254955, 656), (2254965, 727), (2254975, 799), (2254985, 869), (2254995, 938), (2255005, 1004), (2255015, 1066), (2255025, 1124), (2255035, 1178), (2255045, 1228), (2255055, 1272), (2255065, 1312), (2255075, 1347), (2255085, 1377), (2255095, 1403), (2255105, 1425), (2255115, 1443), (2255125, 1457), (2255135, 1469), (2255145, 1479), (2255155, 1486), (2255165, 1492), (2255175, 1495), (2255185, 1498), (2255195, 1499), (2255205, 1500), (2255215, 1500), (2255225, 1500), (2255235, 1500), (2255245, 1500), (2255255, 1500), (2255265, 1500), (2255275, 1500), (2255285, 1500), (2255295, 1500), (2255305, 1500), (2255315, 1500), (2255325, 1500), (2255335, 1500), (2255345, 1500), (2255355, 1500), (2255365, 1500), (2255375, 1500), (2255385, 1500), (2255395, 1500), (2255405, 1500), (2255415, 1500), (2255425, 1500), (2255435, 1500), (2255445, 1500), (2255455, 1500), (2255465, 1500), (2255475, 1500), (2255485, 1500), (2255495, 1500), (2255505, 1500), (2255515, 1500), (2255525, 1500), (2255535, 1500), (2255545, 1500), (2255555, 1500), (2255565, 1500), (2255575, 1500), (2255585, 1500), (2255595, 1500), (2255605, 1500), (2255615, 1500), (2255625, 1500), (2255635, 1500), (2255645, 1500), (2255655, 1500), (2255665, 1500), (2255675, 1500), (2255685, 1500), (2255695, 1500), (2255705, 1500), (2255715, 1500), (2255725, 1500), (2255735, 1500), (2255745, 1500), (2255755, 1500), (2255765, 1500), (2255775, 1500), (2255785, 1500), (2255795, 1500), (2255805, 1500), (2255815, 1500), (2255825, 1500)]