2218800, 0
2218811, 11
2218821, 40
2218831, 82
2218841, 135
2218851, 193
2218861, 255
2218871, 320
2218881, 388
2218891, 456
2218901, 525
2218911, 595
2218921, 665
2218931, 736
2218941, 807
2218951, 879
2218961, 951
2218971, 1023
2218981, 1094
2218991, 1164
2219001, 1231
2219011, 1293
2219021, 1350
2219031, 1400
2219041, 1442
2219051, 1476
2219061, 1503
2219071, 1523
2219081, 1536
2219091, 1544
2219101, 1547
2219111, 1548
2219121, 1547
2219131, 1545
2219141, 1543
2219151, 1540
2219161, 1537
2219171, 1534
2219181, 1531
2219191, 1529
2219201, 1527
2219211, 1525
2219221, 1524
2219231, 1523
2219241, 1522
2219251, 1521
2219261, 1521
2219271, 1520
2219281, 1520
2219291, 1520
2219301, 1520
2219311, 1520
2219321, 1520
2219331, 1520
2219341, 1520
2219351, 1520
2219361, 1520
2219371, 1520
2219381, 1520
2219391, 1520
2219401, 1520
2219411, 1520
2219421, 1520
2219431, 1520
2219441, 1520
2219451, 1520
2219461, 1520
2219471, 1520
2219481, 1520
2219491, 1520
2219501, 1520
2219511, 1520
2219521, 1520
2219531, 1520
2219541, 1520
2219551, 1520
2219561, 1520
2219571, 1520
2219581, 1520
2219591, 1520
2219601, 1520
2219611, 1520
2219621, 1520
2219631, 1520
2219641, 1520
2219651, 1520
2219661, 1520
2219671, 1520
2219681, 1520
2219691, 1520
2219701, 1520
2219711, 1520
2219721, 1520
2219731, 1520
2219741, 1520
2219751, 1520
2219761, 1520
2219771, 1520
2219781, 1520
2219791, 1520