2254835, 0
2254845, 8
2254855, 36
2254865, 76
2254875, 126
2254885, 184
2254895, 246
2254905, 311
2254915, 378
2254925, 446
2254935, 515
2254945, 585
2254955, 656
2254965, 727
2254975, 799
2254985, 869
2254995, 938
2255005, 1004
2255015, 1066
2255025, 1124
2255035, 1178
2255045, 1228
2255055, 1272
2255065, 1312
2255075, 1347
2255085, 1377
2255095, 1403
2255105, 1425
2255115, 1443
2255125, 1457
2255135, 1469
2255145, 1479
2255155, 1486
2255165, 1492
2255175, 1495
2255185, 1498
2255195, 1499
2255205, 1500
2255215, 1500
2255225, 1500
2255235, 1500
2255245, 1500
2255255, 1500
2255265, 1500
2255275, 1500
2255285, 1500
2255295, 1500
2255305, 1500
2255315, 1500
2255325, 1500
2255335, 1500
2255345, 1500
2255355, 1500
2255365, 1500
2255375, 1500
2255385, 1500
2255395, 1500
2255405, 1500
2255415, 1500
2255425, 1500
2255435, 1500
2255445, 1500
2255455, 1500
2255465, 1500
2255475, 1500
2255485, 1500
2255495, 1500
2255505, 1500
2255515, 1500
2255525, 1500
2255535, 1500
2255545, 1500
2255555, 1500
2255565, 1500
2255575, 1500
2255585, 1500
2255595, 1500
2255605, 1500
2255615, 1500
2255625, 1500
2255635, 1500
2255645, 1500
2255655, 1500
2255665, 1500
2255675, 1500
2255685, 1500
2255695, 1500
2255705, 1500
2255715, 1500
2255725, 1500
2255735, 1500
2255745, 1500
2255755, 1500
2255765, 1500
2255775, 1500
2255785, 1500
2255795, 1500
2255805, 1500
2255815, 1500
2255825, 1500